[gd_scene load_steps=4 format=2]

[ext_resource path="res://assets/green_soldier.png" type="Texture" id=1]
[ext_resource path="res://EnemySoldier.gd" type="Script" id=2]

[sub_resource type="CapsuleShape2D" id=1]
radius = 12.7276
height = 8.85303

[node name="EnemySoldier" type="KinematicBody2D"]
script = ExtResource( 2 )

[node name="Sprite" type="Sprite" parent="."]
texture = ExtResource( 1 )

[node name="CollisionShape2D" type="CollisionShape2D" parent="."]
shape = SubResource( 1 )
